{
    "dest": "bundles/",
    "config": "config.json",
    "icon": "src/assets/icons/win/icon.ico",
    "authors": [
        "Narnoo Development Team"
    ],
    "owners": [
        "Narnoo Development Team"
    ],
    "description": "A business 2 business tourism social network, Narnoo allows tourism businesses to share their media and product information with agents, trade and any one requiring access to their HD media.",
    "productName": "Narnoo Desktop",
    "productDescription": "A business 2 business tourism social network, Narnoo allows tourism businesses to share their media and product information with agents, trade and any one requiring access to their HD media.",
    "tags": [
        "Tourism"
    ]
}
